{
	"info": {
		"_postman_id": "6a787a87-2a73-4bba-ae48-933804477f3e",
		"name": "AppBackEnd Tests",
		"schema": "https://schema.getpostman.com/json/collection/v2.1.0/collection.json"
	},
	"item": [
		{
			"name": "POST Login - Falha (E-mail incorreto)",
			"event": [
				{
					"listen": "test",
					"script": {
						"exec": [
							"pm.test('POST Login should fail', () => {\r",
							"    pm.response.to.have.status(404);\r",
							"})"
						],
						"type": "text/javascript"
					}
				}
			],
			"request": {
				"method": "POST",
				"header": [],
				"body": {
					"mode": "raw",
					"raw": "{\r\n    \"email\":\"miguel@gmail.com\",\r\n    \"password\":\"miguel123\"\r\n}",
					"options": {
						"raw": {
							"language": "json"
						}
					}
				},
				"url": {
					"raw": "localhost:3000/api/user/login",
					"host": [
						"localhost"
					],
					"port": "3000",
					"path": [
						"api",
						"user",
						"login"
					]
				}
			},
			"response": []
		},
		{
			"name": "POST Login - Falha (Password incorreta)",
			"event": [
				{
					"listen": "test",
					"script": {
						"exec": [
							"pm.test('POST Login should fail', () => {\r",
							"    pm.response.to.have.status(400);\r",
							"})"
						],
						"type": "text/javascript"
					}
				}
			],
			"request": {
				"method": "POST",
				"header": [],
				"body": {
					"mode": "raw",
					"raw": "{\r\n    \"email\":\"migueldamiaosousa@gmail.com\",\r\n    \"password\":\"miguel1\"\r\n}",
					"options": {
						"raw": {
							"language": "json"
						}
					}
				},
				"url": {
					"raw": "localhost:3000/api/user/login",
					"host": [
						"localhost"
					],
					"port": "3000",
					"path": [
						"api",
						"user",
						"login"
					]
				}
			},
			"response": []
		},
		{
			"name": "POST Login - Sucesso",
			"event": [
				{
					"listen": "test",
					"script": {
						"exec": [
							"pm.test('POST Login should pass', () => {\r",
							"    pm.response.to.have.status(200);\r",
							"})\r",
							"\r",
							"pm.test('POST Login should have jwt token', () => {\r",
							"    const {data} = pm.response.json();\r",
							"    pm.environment.set('token', data.token);\r",
							"    return 'token' in data;\r",
							"})\r",
							"\r",
							"pm.test('POST Login should have same jwt token', () => {\r",
							"    pm.expect(pm.cookies.get('jwt')).to.be.equal(pm.environment.get('token'));\r",
							"})"
						],
						"type": "text/javascript"
					}
				}
			],
			"request": {
				"method": "POST",
				"header": [
					{
						"key": "",
						"value": "",
						"type": "text",
						"disabled": true
					}
				],
				"body": {
					"mode": "raw",
					"raw": "{\r\n    \"email\":\"migueldamiaosousa@gmail.com\",\r\n    \"password\":\"miguel123\"\r\n}",
					"options": {
						"raw": {
							"language": "json"
						}
					}
				},
				"url": {
					"raw": "localhost:3000/api/user/login",
					"host": [
						"localhost"
					],
					"port": "3000",
					"path": [
						"api",
						"user",
						"login"
					]
				}
			},
			"response": []
		},
		{
			"name": "GET User Autenticado - Sucesso",
			"event": [
				{
					"listen": "test",
					"script": {
						"exec": [
							"pm.test('GET User Autenticado should pass', () => {\r",
							"    pm.response.to.have.status(200);\r",
							"})\r",
							"\r",
							"pm.test('GET User Autenticado should have jwt token', () => {\r",
							"    pm.expect(pm.cookies.get('jwt')).to.be.equal(pm.environment.get('token'));\r",
							"})"
						],
						"type": "text/javascript"
					}
				}
			],
			"request": {
				"method": "GET",
				"header": [],
				"url": {
					"raw": "localhost:3000/api/user/user",
					"host": [
						"localhost"
					],
					"port": "3000",
					"path": [
						"api",
						"user",
						"user"
					]
				}
			},
			"response": []
		},
		{
			"name": "GET User Autenticado - Falha (User não autenticado)",
			"event": [
				{
					"listen": "test",
					"script": {
						"exec": [
							"pm.test('GET User Autenticado should fail', () => {\r",
							"    pm.response.to.have.status(200);\r",
							"})"
						],
						"type": "text/javascript"
					}
				}
			],
			"request": {
				"method": "GET",
				"header": [],
				"url": {
					"raw": "localhost:3000/api/user/user",
					"host": [
						"localhost"
					],
					"port": "3000",
					"path": [
						"api",
						"user",
						"user"
					]
				}
			},
			"response": []
		},
		{
			"name": "GET Exames - Falha (Não existem exames armazenados)",
			"event": [
				{
					"listen": "test",
					"script": {
						"exec": [
							"pm.test('GET Exames should fail', () => {\r",
							"    pm.response.to.have.status(200);\r",
							"})"
						],
						"type": "text/javascript"
					}
				}
			],
			"request": {
				"method": "GET",
				"header": [],
				"url": {
					"raw": "localhost:3000/api/exam/",
					"host": [
						"localhost"
					],
					"port": "3000",
					"path": [
						"api",
						"exam",
						""
					]
				}
			},
			"response": []
		},
		{
			"name": "POST Importação - Sucesso",
			"event": [
				{
					"listen": "test",
					"script": {
						"exec": [
							"pm.test('POST Importação should pass', () => {\r",
							"    pm.response.to.have.status(200);\r",
							"})"
						],
						"type": "text/javascript"
					}
				}
			],
			"request": {
				"method": "POST",
				"header": [],
				"url": {
					"raw": "localhost:3000/api/import",
					"host": [
						"localhost"
					],
					"port": "3000",
					"path": [
						"api",
						"import"
					]
				}
			},
			"response": []
		},
		{
			"name": "GET Exames - Sucesso",
			"event": [
				{
					"listen": "test",
					"script": {
						"exec": [
							"pm.test('GET Exames should pass', () => {\r",
							"    pm.response.to.have.status(200);\r",
							"})"
						],
						"type": "text/javascript"
					}
				}
			],
			"request": {
				"method": "GET",
				"header": [],
				"url": {
					"raw": "localhost:3000/api/exam/",
					"host": [
						"localhost"
					],
					"port": "3000",
					"path": [
						"api",
						"exam",
						""
					]
				}
			},
			"response": []
		},
		{
			"name": "GET Exames de Consulta - Sucesso",
			"event": [
				{
					"listen": "test",
					"script": {
						"exec": [
							"pm.test('GET Exames Consulta should pass', () => {\r",
							"    pm.response.to.have.status(200);\r",
							"})\r",
							"\r",
							"pm.test('GET Exames Consulta should be an array', () => {\r",
							"    pm.expect(pm.response.json()).to.be.an(\"array\");\r",
							"})"
						],
						"type": "text/javascript"
					}
				}
			],
			"request": {
				"method": "GET",
				"header": [],
				"url": {
					"raw": "localhost:3000/api/exam/bymodule/CON",
					"host": [
						"localhost"
					],
					"port": "3000",
					"path": [
						"api",
						"exam",
						"bymodule",
						"CON"
					]
				}
			},
			"response": []
		},
		{
			"name": "GET Exames de Internamento - Sucesso",
			"event": [
				{
					"listen": "test",
					"script": {
						"exec": [
							"pm.test('GET Exames Internamento should pass', () => {\r",
							"    pm.response.to.have.status(200);\r",
							"})\r",
							"\r",
							"pm.test('GET Exames Internamento should be an array', () => {\r",
							"    pm.expect(pm.response.json()).to.be.an(\"array\");\r",
							"})"
						],
						"type": "text/javascript"
					}
				}
			],
			"request": {
				"method": "GET",
				"header": [],
				"url": {
					"raw": "localhost:3000/api/exam/bymodule/INT",
					"host": [
						"localhost"
					],
					"port": "3000",
					"path": [
						"api",
						"exam",
						"bymodule",
						"INT"
					]
				}
			},
			"response": []
		},
		{
			"name": "GET Exames de Urgência - Sucesso",
			"event": [
				{
					"listen": "test",
					"script": {
						"exec": [
							"pm.test('GET Exames Urgência should pass', () => {\r",
							"    pm.response.to.have.status(200);\r",
							"})\r",
							"\r",
							"pm.test('GET Exames Urgência should be an array', () => {\r",
							"    pm.expect(pm.response.json()).to.be.an(\"array\");\r",
							"})"
						],
						"type": "text/javascript"
					}
				}
			],
			"request": {
				"method": "GET",
				"header": [],
				"url": {
					"raw": "localhost:3000/api/exam/bymodule/URG",
					"host": [
						"localhost"
					],
					"port": "3000",
					"path": [
						"api",
						"exam",
						"bymodule",
						"URG"
					]
				}
			},
			"response": []
		},
		{
			"name": "GET Exames por Módulo - Falha (Exames não encontrados)",
			"event": [
				{
					"listen": "test",
					"script": {
						"exec": [
							"pm.test('GET Exames por Módulo should have empty array', () => {\r",
							"    pm.expect(pm.response.json()).to.be.empty;\r",
							"})"
						],
						"type": "text/javascript"
					}
				}
			],
			"request": {
				"method": "GET",
				"header": [],
				"url": {
					"raw": "localhost:3000/api/exam/bymodule/QWE",
					"host": [
						"localhost"
					],
					"port": "3000",
					"path": [
						"api",
						"exam",
						"bymodule",
						"QWE"
					]
				}
			},
			"response": []
		},
		{
			"name": "POST Logout - Sucesso",
			"event": [
				{
					"listen": "test",
					"script": {
						"exec": [
							"pm.test('POST Logout should pass', () => {\r",
							"    pm.response.to.have.status(200);\r",
							"})\r",
							"\r",
							"pm.test('POST Logout should not have jwt token', () => {\r",
							"    pm.expect(pm.cookies.get('jwt')).to.be.undefined;\r",
							"})"
						],
						"type": "text/javascript"
					}
				}
			],
			"request": {
				"method": "POST",
				"header": [],
				"url": {
					"raw": "localhost:3000/api/user/logout",
					"host": [
						"localhost"
					],
					"port": "3000",
					"path": [
						"api",
						"user",
						"logout"
					]
				}
			},
			"response": []
		}
	]
}